<?xml version="1.0" encoding="utf-8"?>
<!-- Generator: Adobe Illustrator 19.1.1, SVG Export Plug-In . SVG Version: 6.00 Build 0)  -->
<svg version="1.1" xmlns="http://www.w3.org/2000/svg" xmlns:xlink="http://www.w3.org/1999/xlink" x="0px" y="0px"
	 viewBox="0 0 256 335" style="enable-background:new 0 0 256 335;" xml:space="preserve">
<style type="text/css">
	.st0{fill:#037CB7;}
	.st1{fill:#78D0F6;}
	.st2{display:none;fill:#76D1F7;}
	.st3{display:none;}
	.st4{display:inline;fill:#0073A1;}
	.st5{font-family:'DINbekBold';}
	.st6{font-size:12px;}
	.st7{display:inline;fill:#067A96;}
	.st8{font-family:'DIN-Black';}
	.st9{font-size:14px;}
	.st10{display:inline;fill:#015677;}
	.st11{font-size:54px;}
	.st12{letter-spacing:12;}
	.st13{display:inline;fill:#1CA5DD;}
	.st14{font-size:18px;}
	.st15{display:inline;fill:#0A8EC1;}
	.st16{display:inline;fill:#014D6B;}
	.st17{font-size:10px;}
	.st18{letter-spacing:2;}
	.st19{display:inline;fill:#31C5F4;}
	.st20{display:inline;fill:#04597A;}
	.st21{font-size:9px;}
	.st22{display:inline;fill:#65C7E5;}
	.st23{display:inline;fill:#045E82;}
	.st24{font-size:11px;}
	.st25{display:inline;fill:#2FA2CE;}
	.st26{display:inline;fill:#109ED6;}
	.st27{font-size:17px;}
	.st28{display:inline;fill:#054972;}
	.st29{display:inline;fill:#0B8AB7;}
	.st30{display:inline;fill:#189ACF;}
	.st31{display:inline;fill:#024B68;}
	.st32{display:inline;fill:#037CB7;}
	.st33{display:inline;fill:#43BEEE;}
	.st34{font-size:15px;}
	.st35{font-size:16px;}
	.st36{display:inline;fill:#0981A8;}
	.st37{letter-spacing:1;}
	.st38{display:inline;fill:#1E9CCE;}
	.st39{display:inline;fill:#00597C;}
	.st40{font-size:8px;}
	.st41{font-size:6px;}
	.st42{display:inline;fill:#04678F;}
	.st43{font-size:7px;}
	.st44{display:inline;fill:#025C7F;}
	.st45{display:inline;fill:#036A94;}
	.st46{display:inline;fill:#2BA8CE;}
	.st47{font-size:4px;}
	.st48{display:inline;fill:#0A87AF;}
	.st49{display:inline;fill:#014B68;}
	.st50{display:inline;fill:#035E82;}
	.st51{display:inline;fill:#025068;}
	.st52{display:inline;fill:#066D8E;}
	.st53{font-size:13px;}
	.st54{display:inline;fill:#35BFEF;}
	.st55{display:inline;fill:#35B4DB;}
	.st56{display:inline;fill:#129FDA;}
	.st57{display:inline;fill:#038BC0;}
	.st58{display:inline;fill:#0798D1;}
	.st59{display:inline;fill:#01404F;}
	.st60{font-size:5px;}
	.st61{display:inline;fill:#03697F;}
	.st62{display:inline;fill:#056777;}
	.st63{font-size:3px;}
	.st64{display:inline;fill:#0C9AC1;}
	.st65{display:inline;fill:#016994;}
	.st66{display:inline;fill:#045F7D;}
	.st67{display:inline;fill:#1BA2C1;}
	.st68{display:inline;fill:#04454C;}
	.st69{display:inline;fill:#034E66;}
	.st70{display:inline;fill:#055163;}
	.st71{display:inline;fill:#15A9D5;}
	.st72{display:inline;fill:#02709C;}
</style>
<g id="Layer_1">
	<g>
		<path class="st0" d="M128,15.2c-58.5,0-106,47.5-106,106c0,30.5,10.5,46.5,33.6,77.4C74.9,223.7,81.2,231,83,259.9l0,0V283h90
			v-23.1l0,0c1.8-28.9,8.4-37.6,27.4-61.4s33.6-46.9,33.6-77.4C234,62.7,186.5,15.2,128,15.2z"/>
		<rect x="83" y="289" class="st0" width="90" height="14"/>
		<rect x="101" y="308" class="st0" width="54" height="14"/>
	</g>
	<g>
		<path class="st1" d="M128,15.2c-58.5,0-106,47.5-106,106c0,30.5,10.5,46.5,33.6,77.4C74.9,223.7,81.2,231,83,259.9l0,0
			c0,0,5.9-8.1,135.8-193.4C200.3,35.8,166.5,15.2,128,15.2z"/>
	</g>
	<path class="st2" d="M128,15.2c-58.5,0-106,47.5-106,106c0,30.5,12.9,58,33.6,77.4v0.2C70,207.3,81.2,231,83,259.9l0,0
		c0,0,0,0,135.6-193.8C200,35.6,166.4,15.2,128,15.2z"/>
</g>
<g id="Layer_2" class="st3">
	<text transform="matrix(1 0 0 1 42 66.625)" class="st4 st5 st6">Keyword</text>
	<text transform="matrix(1 0 0 1 53.125 56)" class="st7 st8 st9">Tool</text>
	<text transform="matrix(1 0 0 1 21.4998 137.5732)" class="st10 st8 st11 st12">MALIN</text>
	<text transform="matrix(1 0 0 1 109.8473 283)" class="st13 st5 st14">website</text>
	<text transform="matrix(1 0 0 1 54.25 196.125)" class="st15 st5 st6">generate</text>
	<text transform="matrix(1 0 0 1 83 303)" class="st16 st5 st17 st18">Advertising</text>
	<text transform="matrix(1 0 0 1 80.8333 247.1667)" class="st19 st5 st6">International</text>
	<text transform="matrix(1 0 0 1 120.41 188.5)" class="st20 st5 st21">Creation</text>
	<text transform="matrix(1 0 0 1 169.3333 164.1667)" class="st22 st5 st6">Planner</text>
	<text transform="matrix(1 0 0 1 82.1109 272.5833)" class="st23 st5 st24">Research</text>
	<text transform="matrix(1 0 0 1 31.905 164.9997)" class="st25 st5 st14">suggestions</text>
	<text transform="matrix(1 0 0 1 147.6667 66.625)" class="st26 st5 st27">discover</text>
	<text transform="matrix(1 0 0 1 147 214)" class="st28 st5 st27">Work</text>
	<text id="People" transform="matrix(1 0 0 1 64.125 41)" class="st29 st5 st21">people</text>
	<text transform="matrix(1 0 0 1 50.3125 90.5)" class="st30 st5 st9">Audience</text>
	<text transform="matrix(1 0 0 1 126.4098 198)" class="st31 st5 st6">Dermatologie</text>
	<text transform="matrix(1 0 0 1 45.4377 187)" class="st32 st5 st17">Clinique</text>
	<text transform="matrix(1 0 0 1 104.2085 225.75)" class="st33 st5 st34">Biochimie</text>
	<text transform="matrix(1 0 0 1 32.7385 77)" class="st32 st5 st17">Anesthésiologie</text>
	<text transform="matrix(1 0 0 1 134.5 90.5)" class="st23 st5 st35">Audiologie</text>
	<text id="hôpitaux" transform="matrix(1 0 0 1 86.5625 33.8543)" class="st36 st5 st34 st37">hôpitaux</text>
	<text transform="matrix(1 0 0 1 101 178.8125)" class="st38 st5 st27">optimisation</text>
	<text transform="matrix(1 0 0 1 78.9167 237.4167)" class="st39 st5 st40">features</text>
	<text transform="matrix(1 0 0 1 30.625 82.5)" class="st32 st5 st41">target</text>
	<text transform="matrix(1 0 0 1 122.75 264.1042)" class="st42 st5 st43">Néphrologie</text>
	<text transform="matrix(1 0 0 1 100.1875 315.7501)" class="st44 st5 st17">Itinérants</text>
	<text transform="matrix(1 0 0 1 93.125 68)" class="st32 st5 st40">Hypnothérapie</text>
	<text transform="matrix(1 0 0 1 136.479 42.6875)" class="st32 st5 st17">Gynécologie</text>
	<text transform="matrix(1 0 0 1 74.1667 227.25)" class="st45 st5 st17">Greffe</text>
	<text transform="matrix(1 0 0 1 170.0208 34.5832)" class="st46 st5 st47">Fertilité</text>
	<text transform="matrix(1 0 0 1 114.9583 53.3125)" class="st32 st5 st6">Ergothérapie</text>
	<text transform="matrix(1 0 0 1 94.0625 43)" class="st48 st5 st17">Enfants</text>
	<text transform="matrix(1 0 0 1 176.2914 154.4566)" class="st49 st5 st17">Vaccination</text>
	<text transform="matrix(1 0 0 1 136.8125 164.9998)" class="st50 st5 st40">Scanner</text>
	<text transform="matrix(1 0 0 1 82.2551 281)" class="st51 st5 st17">Répit</text>
	<text transform="matrix(1 0 0 1 62.5625 209)" class="st52 st5 st53">Phlébologie</text>
	<text transform="matrix(1 0 0 1 129 322)" class="st54 st5 st40">Stomie</text>
	<text transform="matrix(1 0 0 1 111.3473 77)" class="st32 st5 st43">Podiatrie</text>
	<text transform="matrix(1 0 0 1 156 187)" class="st55 st5 st17">Ostéopathie</text>
	<text transform="matrix(1 0 0 1 82.9999 293.3333)" class="st56 st5 st41">angioplasty</text>
	<text transform="matrix(1 0 0 1 119.4097 85.1028)" class="st57 st5 st41">fever</text>
	<text transform="matrix(1 0 0 1 93.1249 147.2693)" class="st32 st5 st43">symptoms</text>
	<text transform="matrix(1 0 0 1 103.6668 153.7694)" class="st58 st5 st41">patient</text>
	<text transform="matrix(1 0 0 1 106.4375 20.5)" class="st32 st5 st41">antiemetic</text>
	<text transform="matrix(1 0 0 1 25.5 150.2692)" class="st32 st5 st6">angioplasty</text>
	<text transform="matrix(1 0 0 1 82.2553 258.625)" class="st51 st5 st21">coma</text>
	<text transform="matrix(1 0 0 1 81.75 251.375)" class="st59 st5 st60">TUMOR</text>
	<text transform="matrix(1 0 0 1 102.0419 212)" class="st61 st5 st47">ulcer</text>
	<text transform="matrix(1 0 0 1 110.4583 257.958)" class="st62 st5 st63">health</text>
	<text transform="matrix(1 0 0 1 143.25 310.75)" class="st64 st5 st47">artery</text>
	<text transform="matrix(1 0 0 1 141.8125 315.7502)" class="st65 st5 st60">taux</text>
	<text transform="matrix(1 0 0 1 101 320.9375)" class="st66 st5 st60">angioplasty</text>
	<text transform="matrix(1 0 0 1 68.3125 216.25)" class="st45 st5 st43">infection</text>
	<text transform="matrix(1 0 0 1 82.751 263.3336)" class="st67 st5 st41">examination</text>
	<text transform="matrix(1 0 0 1 99.6668 251.167)" class="st68 st5 st47">chemotherapy</text>
	<text transform="matrix(1 0 0 1 136.125 269.2288)" class="st69 st5 st60">mastectomy</text>
	<text transform="matrix(1 0 0 1 130.3332 255.1667)" class="st39 st5 st40">institutions</text>
	<text transform="matrix(1 0 0 1 107.2917 254.4581)" class="st70 st5 st60">pension</text>
	<text transform="matrix(1 0 0 1 128.9998 269.2292)" class="st59 st5 st47">clot</text>
	<text transform="matrix(1 0 0 1 128.3333 237.4165)" class="st45 st5 st43">incontinence</text>
	<text transform="matrix(1 0 0 1 140.25 231.25)" class="st15 st5 st43">scintigraphy</text>
	<text transform="matrix(1 0 0 1 107.2918 231.9792)" class="st71 st5 st47">thrombosis</text>
	<text transform="matrix(1 0 0 1 112.6665 237.4167)" class="st62 st5 st47">suture</text>
	<text transform="matrix(1 0 0 1 77.2776 231.25)" class="st23 st5 st60">screening</text>
	<text transform="matrix(1 0 0 1 77.2776 231.25)" class="st23 st5 st60">screening</text>
	<text transform="matrix(1 0 0 1 113.7915 212.9998)" class="st71 st5 st47">legionellosis</text>
	<text transform="matrix(1 0 0 1 40.5417 178.8125)" class="st45 st5 st17 st37">healthcare</text>
	<text transform="matrix(1 0 0 1 91.0417 187.8542)" class="st71 st5 st47">intestine</text>
	<text transform="matrix(1 0 0 1 91.0417 182.5421)" class="st32 st5 st47">sigmoidoscope</text>
	<text transform="matrix(1 0 0 1 74.9165 170.7695)" class="st58 st5 st60">treatment</text>
	<text transform="matrix(1 0 0 1 104.6669 197.9999)" class="st32 st5 st43">heart</text>
	<text transform="matrix(1 0 0 1 111.9165 192.4998)" class="st32 st5 st60">exam</text>
	<text transform="matrix(1 0 0 1 142.8127 159.3543)" class="st71 st5 st47">episiotomy</text>
	<text transform="matrix(1 0 0 1 128.0002 153.7691)" class="st45 st5 st17">carcinoma</text>
	<text transform="matrix(1 0 0 1 141.0417 146.436)" class="st33 st5 st60">digital rectal examination</text>
	<text transform="matrix(1 0 0 1 28.2498 87.9362)" class="st58 st5 st60">immune</text>
	<text transform="matrix(1 0 0 1 119.4097 59.2695)" class="st58 st5 st60">transplant</text>
	<text transform="matrix(1 0 0 1 98.6667 61.769)" class="st32 st5 st60">urinaire</text>
	<text transform="matrix(1 0 0 1 83.7506 51.8542)" class="st71 st5 st60 st37">ligament</text>
	<text transform="matrix(1 0 0 1 83.7505 56.3333)" class="st72 st5 st60">scintigraphy</text>
	<text transform="matrix(1 0 0 1 97.3333 47.0832)" class="st23 st5 st63">screening</text>
	<text transform="matrix(1 0 0 1 82.7507 46.0831)" class="st62 st5 st63">health</text>
	<text transform="matrix(1 0 0 1 168.8966 28.9164)" class="st62 st5 st63">cough</text>
	<text transform="matrix(1 0 0 1 144.2918 77)" class="st33 st5 st24 st37">thrombosis</text>
	<text transform="matrix(1 0 0 1 142.8125 21.375)" class="st15 st5 st60">drugs</text>
	<text transform="matrix(1 0 0 1 70.1668 33.8541)" class="st62 st5 st63">diabetes</text>
	<text transform="matrix(1 0 0 1 76.2083 30.2499)" class="st71 st5 st63">doppler</text>
	<text transform="matrix(1 0 0 1 126.9099 294.042)" class="st23 st5 st43">episiotomy</text>
</g>
</svg>
